{
  "users": [
    {
      "id": 1,
      "username": "admin",
      "password": "admin"
    },
    {
      "id": 2,
      "username": "user",
      "password": "user"
    },
    {
      "id": 3,
      "username": "staff",
      "password": "staff"
    }
  ],
  "employees": [
    {
      "firstName": "Yanti",
      "lastName": "Harahap",
      "username": "yandiHarahap",
      "email": "yanti.harahap@mail.com",
      "birthDate": "1992-01-01",
      "basicSalary": "100000000",
      "status": "Permanen",
      "group": "Finance",
      "description": "Testing123",
      "id": 1
    },
    {
      "firstName": "Agus",
      "lastName": "Siregar",
      "username": "agusSiregar",
      "email": "agus.siregar@mail.com",
      "birthDate": "1990-02-15",
      "basicSalary": "95000000",
      "status": "Kontrak",
      "group": "Marketing",
      "description": "Developing software",
      "id": 2
    },
    {
      "firstName": "Budi",
      "lastName": "Santoso",
      "username": "budiSantoso",
      "email": "budi.santoso@mail.com",
      "birthDate": "1985-05-25",
      "basicSalary": "85000000",
      "status": "Permanen",
      "group": "Management",
      "description": "Project manager",
      "id": 3
    },
    {
      "firstName": "Siti",
      "lastName": "Nurhaliza",
      "username": "sitiNurhaliza",
      "email": "siti.nurhaliza@mail.com",
      "birthDate": "1993-08-12",
      "basicSalary": "78000000",
      "status": "Kontrak",
      "group": "HR",
      "description": "Human resources",
      "id": 4
    },
    {
      "firstName": "Dewi",
      "lastName": "Lestari",
      "username": "dewiLestari",
      "email": "dewi.lestari@mail.com",
      "birthDate": "1988-03-30",
      "basicSalary": "90000000",
      "status": "Permanen",
      "group": "Finance",
      "description": "Accounting",
      "id": 5
    },
    {
      "firstName": "Tono",
      "lastName": "Wibowo",
      "username": "tonoWibowo",
      "email": "tono.wibowo@mail.com",
      "birthDate": "1991-07-22",
      "basicSalary": "87000000",
      "status": "Kontrak",
      "group": "Support",
      "description": "Technical support",
      "id": 6
    },
    {
      "firstName": "Ayu",
      "lastName": "Tingting",
      "username": "ayuTingting",
      "email": "ayu.tingting@mail.com",
      "birthDate": "1994-11-10",
      "basicSalary": "93000000",
      "status": "Permanen",
      "group": "Marketing",
      "description": "Marketing manager",
      "id": 7
    },
    {
      "firstName": "Rudi",
      "lastName": "Hartono",
      "username": "rudiHartono",
      "email": "rudi.hartono@mail.com",
      "birthDate": "1987-06-18",
      "basicSalary": "82000000",
      "status": "Kontrak",
      "group": "Sales",
      "description": "Sales representative",
      "id": 8
    },
    {
      "firstName": "Linda",
      "lastName": "Saputra",
      "username": "lindaSaputra",
      "email": "linda.saputra@mail.com",
      "birthDate": "1992-04-05",
      "basicSalary": "98000000",
      "status": "Permanen",
      "group": "Legal",
      "description": "Legal advisor",
      "id": 9
    },
    {
      "firstName": "Andi",
      "lastName": "Pratama",
      "username": "andiPratama",
      "email": "andi.pratama@mail.com",
      "birthDate": "1995-09-14",
      "basicSalary": "90000000",
      "status": "Kontrak",
      "group": "Quality Assurance",
      "description": "Research and Marketing",
      "id": 10
    },
    {
      "firstName": "Wati",
      "lastName": "Mahmud",
      "username": "watiMahmud",
      "email": "wati.mahmud@mail.com",
      "birthDate": "1989-01-20",
      "basicSalary": "91000000",
      "status": "Permanen",
      "group": "IT",
      "description": "IT specialist",
      "id": 11
    },
    {
      "firstName": "Fajar",
      "lastName": "Setiawan",
      "username": "fajarSetiawan",
      "email": "fajar.setiawan@mail.com",
      "birthDate": "1990-03-12",
      "basicSalary": "95000000",
      "status": "Kontrak",
      "group": "Operations",
      "description": "Operations manager",
      "id": 12
    },
    {
      "firstName": "Nina",
      "lastName": "Kusuma",
      "username": "ninaKusuma",
      "email": "nina.kusuma@mail.com",
      "birthDate": "1993-05-15",
      "basicSalary": "87000000",
      "status": "Permanen",
      "group": "IT",
      "description": "Admin assistant",
      "id": 13
    },
    {
      "firstName": "Bambang",
      "lastName": "Sugeng",
      "username": "bambangSugeng",
      "email": "bambang.sugeng@mail.com",
      "birthDate": "1988-07-25",
      "basicSalary": "92000000",
      "status": "Kontrak",
      "group": "Customer Quality Assurance",
      "description": "Customer Quality Assurance representative",
      "id": 14
    },
    {
      "firstName": "Rina",
      "lastName": "Sari",
      "username": "rinaSari",
      "email": "rina.sari@mail.com",
      "birthDate": "1991-09-10",
      "basicSalary": "89000000",
      "status": "Permanen",
      "group": "IT",
      "description": "IT manager",
      "id": 15
    },
    {
      "firstName": "Eko",
      "lastName": "Supriyadi",
      "username": "ekoSupriyadi",
      "email": "eko.supriyadi@mail.com",
      "birthDate": "1992-11-05",
      "basicSalary": "86000000",
      "status": "Kontrak",
      "group": "Finance",
      "description": "Finance coordinator",
      "id": 16
    },
    {
      "firstName": "Sri",
      "lastName": "Handayani",
      "username": "sriHandayani",
      "email": "sri.handayani@mail.com",
      "birthDate": "1990-12-20",
      "basicSalary": "94000000",
      "status": "Permanen",
      "group": "Support",
      "description": "Support officer",
      "id": 17
    },
    {
      "firstName": "Tini",
      "lastName": "Halim",
      "username": "tiniHalim",
      "email": "tini.halim@mail.com",
      "birthDate": "1991-01-01",
      "basicSalary": "90000000",
      "status": "Kontrak",
      "group": "Quality Assurance",
      "description": "QA specialist",
      "id": 18
    },
    {
      "firstName": "Anton",
      "lastName": "Mulyadi",
      "username": "antonMulyadi",
      "email": "anton.mulyadi@mail.com",
      "birthDate": "1994-02-15",
      "basicSalary": "97000000",
      "status": "Permanen",
      "group": "Sales",
      "description": "Sales manager",
      "id": 19
    },
    {
      "firstName": "Dewi",
      "lastName": "Rahmawati",
      "username": "dewiRahmawati",
      "email": "dewi.rahmawati@mail.com",
      "birthDate": "1989-03-25",
      "basicSalary": "88000000",
      "status": "Kontrak",
      "group": "Marketing",
      "description": "Marketing assistant",
      "id": 20
    },
    {
      "firstName": "Yusuf",
      "lastName": "Santoso",
      "username": "yusufSantoso",
      "email": "yusuf.santoso@mail.com",
      "birthDate": "1995-04-30",
      "basicSalary": "94000000",
      "status": "Permanen",
      "group": "Marketing",
      "description": "Software engineer",
      "id": 21
    },
    {
      "firstName": "Ratna",
      "lastName": "Sari",
      "username": "ratnaSari",
      "email": "ratna.sari@mail.com",
      "birthDate": "1987-05-20",
      "basicSalary": "91000000",
      "status": "Kontrak",
      "group": "HR",
      "description": "HR assistant",
      "id": 22
    },
    {
      "firstName": "Hendra",
      "lastName": "Kurniawan",
      "username": "hendraKurniawan",
      "email": "hendra.kurniawan@mail.com",
      "birthDate": "1992-06-15",
      "basicSalary": "93000000",
      "status": "Permanen",
      "group": "IT",
      "description": "IT support",
      "id": 23
    },
    {
      "firstName": "Lina",
      "lastName": "Sari",
      "username": "linaSari",
      "email": "lina.sari@mail.com",
      "birthDate": "1990-07-25",
      "basicSalary": "90000000",
      "status": "Kontrak",
      "group": "Finance",
      "description": "Finance officer",
      "id": 24
    },
    {
      "firstName": "Agung",
      "lastName": "Widodo",
      "username": "agungWidodo",
      "email": "agung.widodo@mail.com",
      "birthDate": "1988-08-10",
      "basicSalary": "89000000",
      "status": "Permanen",
      "group": "Operations",
      "description": "Operations assistant",
      "id": 25
    },
    {
      "firstName": "Sari",
      "lastName": "Ningsih",
      "username": "sariNingsih",
      "email": "sari.ningsih@mail.com",
      "birthDate": "1993-09-15",
      "basicSalary": "92000000",
      "status": "Kontrak",
      "group": "Legal",
      "description": "Legal assistant",
      "id": 26
    },
    {
      "firstName": "Rian",
      "lastName": "Santoso",
      "username": "rianSantoso",
      "email": "rian.santoso@mail.com",
      "birthDate": "1991-10-10",
      "basicSalary": "97000000",
      "status": "Permanen",
      "group": "Marketing",
      "description": "Full stack developer",
      "id": 27
    },
    {
      "firstName": "Lusi",
      "lastName": "Kusuma",
      "username": "lusiKusuma",
      "email": "lusi.kusuma@mail.com",
      "birthDate": "1990-11-25",
      "basicSalary": "86000000",
      "status": "Kontrak",
      "group": "Support",
      "description": "Customer support",
      "id": 28
    },
    {
      "firstName": "Yuli",
      "lastName": "Wulandari",
      "username": "yuliWulandari",
      "email": "yuli.wulandari@mail.com",
      "birthDate": "1994-12-20",
      "basicSalary": "88000000",
      "status": "Permanen",
      "group": "Marketing",
      "description": "Marketing specialist",
      "id": 29
    },
    {
      "firstName": "Asep",
      "lastName": "Ridwan",
      "username": "asepRidwan",
      "email": "asep.ridwan@mail.com",
      "birthDate": "1989-01-10",
      "basicSalary": "94000000",
      "status": "Kontrak",
      "group": "Sales",
      "description": "Sales assistant",
      "id": 30
    },
    {
      "firstName": "Ika",
      "lastName": "Wahyuni",
      "username": "ikaWahyuni",
      "email": "ika.wahyuni@mail.com",
      "birthDate": "1993-02-25",
      "basicSalary": "90000000",
      "status": "Permanen",
      "group": "IT",
      "description": "Admin manager",
      "id": 31
    },
    {
      "firstName": "Rini",
      "lastName": "Suryani",
      "username": "riniSuryani",
      "email": "rini.suryani@mail.com",
      "birthDate": "1988-03-10",
      "basicSalary": "91000000",
      "status": "Kontrak",
      "group": "Customer Quality Assurance",
      "description": "Customer Quality Assurance manager",
      "id": 32
    },
    {
      "firstName": "Beni",
      "lastName": "Haryanto",
      "username": "beniHaryanto",
      "email": "beni.haryanto@mail.com",
      "birthDate": "1990-04-15",
      "basicSalary": "97000000",
      "status": "Permanen",
      "group": "IT",
      "description": "IT assistant",
      "id": 33
    },
    {
      "firstName": "Tina",
      "lastName": "Saputra",
      "username": "tinaSaputra",
      "email": "tina.saputra@mail.com",
      "birthDate": "1992-05-30",
      "basicSalary": "92000000",
      "status": "Kontrak",
      "group": "Finance",
      "description": "Finance assistant",
      "id": 34
    },
    {
      "firstName": "Evi",
      "lastName": "Susanti",
      "username": "eviSusanti",
      "email": "evi.susanti@mail.com",
      "birthDate": "1994-06-25",
      "basicSalary": "93000000",
      "status": "Permanen",
      "group": "Support",
      "description": "Support assistant",
      "id": 35
    },
    {
      "firstName": "Andi",
      "lastName": "Nugraha",
      "username": "andiNugraha",
      "email": "andi.nugraha@mail.com",
      "birthDate": "1991-07-10",
      "basicSalary": "95000000",
      "status": "Kontrak",
      "group": "Quality Assurance",
      "description": "QA assistant",
      "id": 36
    },
    {
      "firstName": "Sri",
      "lastName": "Utami",
      "username": "sriUtami",
      "email": "sri.utami@mail.com",
      "birthDate": "1992-08-05",
      "basicSalary": "94000000",
      "status": "Permanen",
      "group": "Marketing",
      "description": "Front-end developer",
      "id": 37
    },
    {
      "firstName": "Nina",
      "lastName": "Yuliani",
      "username": "ninaYuliani",
      "email": "nina.yuliani@mail.com",
      "birthDate": "1990-09-15",
      "basicSalary": "90000000",
      "status": "Kontrak",
      "group": "Support",
      "description": "Technical support assistant",
      "id": 38
    },
    {
      "firstName": "Feri",
      "lastName": "Kurniawan",
      "username": "feriKurniawan",
      "email": "feri.kurniawan@mail.com",
      "birthDate": "1995-10-25",
      "basicSalary": "87000000",
      "status": "Permanen",
      "group": "IT",
      "description": "Network engineer",
      "id": 39
    },
    {
      "firstName": "Rosa",
      "lastName": "Permata",
      "username": "rosaPermata",
      "email": "rosa.permata@mail.com",
      "birthDate": "1988-11-05",
      "basicSalary": "91000000",
      "status": "Kontrak",
      "group": "Operations",
      "description": "Operations coordinator",
      "id": 40
    },
    {
      "firstName": "Gina",
      "lastName": "Suryani",
      "username": "ginaSuryani",
      "email": "gina.suryani@mail.com",
      "birthDate": "1993-12-10",
      "basicSalary": "93000000",
      "status": "Permanen",
      "group": "Legal",
      "description": "Legal specialist",
      "id": 41
    },
    {
      "firstName": "Yanto",
      "lastName": "Pratama",
      "username": "yantoPratama",
      "email": "yanto.pratama@mail.com",
      "birthDate": "1991-01-25",
      "basicSalary": "92000000",
      "status": "Kontrak",
      "group": "HR",
      "description": "HR manager",
      "id": 42
    },
    {
      "firstName": "Susi",
      "lastName": "Hartini",
      "username": "susiHartini",
      "email": "susi.hartini@mail.com",
      "birthDate": "1989-02-20",
      "basicSalary": "90000000",
      "status": "Permanen",
      "group": "Finance",
      "description": "Finance specialist",
      "id": 43
    },
    {
      "firstName": "Andi",
      "lastName": "Wijaya",
      "username": "andiWijaya",
      "email": "andi.wijaya@mail.com",
      "birthDate": "1992-03-15",
      "basicSalary": "91000000",
      "status": "Kontrak",
      "group": "Marketing",
      "description": "Back-end developer",
      "id": 44
    },
    {
      "firstName": "Tuti",
      "lastName": "Sari",
      "username": "tutiSari",
      "email": "tuti.sari@mail.com",
      "birthDate": "1994-04-10",
      "basicSalary": "87000000",
      "status": "Permanen",
      "group": "Marketing",
      "description": "Marketing executive",
      "id": 45
    },
    {
      "firstName": "Fajar",
      "lastName": "Saputra",
      "username": "fajarSaputra",
      "email": "fajar.saputra@mail.com",
      "birthDate": "1990-05-25",
      "basicSalary": "90000000",
      "status": "Kontrak",
      "group": "Sales",
      "description": "Sales executive",
      "id": 46
    },
    {
      "firstName": "Rina",
      "lastName": "Santoso",
      "username": "rinaSantoso",
      "email": "rina.santoso@mail.com",
      "birthDate": "1991-06-15",
      "basicSalary": "92000000",
      "status": "Permanen",
      "group": "Support",
      "description": "Customer support manager",
      "id": 47
    },
    {
      "firstName": "Lina",
      "lastName": "Pratiwi",
      "username": "linaPratiwi",
      "email": "lina.pratiwi@mail.com",
      "birthDate": "1992-07-05",
      "basicSalary": "91000000",
      "status": "Kontrak",
      "group": "IT",
      "description": "Admin coordinator",
      "id": 48
    },
    {
      "firstName": "Budi",
      "lastName": "Sujatmiko",
      "username": "budiSujatmiko",
      "email": "budi.sujatmiko@mail.com",
      "birthDate": "1989-08-25",
      "basicSalary": "90000000",
      "status": "Permanen",
      "group": "IT",
      "description": "IT coordinator",
      "id": 49
    },
    {
      "firstName": "Siti",
      "lastName": "Nurhayati",
      "username": "sitiNurhayati",
      "email": "siti.nurhayati@mail.com",
      "birthDate": "1993-09-10",
      "basicSalary": "93000000",
      "status": "Kontrak",
      "group": "Finance",
      "description": "Finance coordinator",
      "id": 50
    },
    {
      "firstName": "Agus",
      "lastName": "Mulyadi",
      "username": "agusMulyadi",
      "email": "agus.mulyadi@mail.com",
      "birthDate": "1988-10-20",
      "basicSalary": "97000000",
      "status": "Permanen",
      "group": "Quality Assurance",
      "description": "QA manager",
      "id": 51
    },
    {
      "firstName": "Rina",
      "lastName": "Hartono",
      "username": "rinaHartono",
      "email": "rina.hartono@mail.com",
      "birthDate": "1991-11-25",
      "basicSalary": "92000000",
      "status": "Kontrak",
      "group": "Marketing",
      "description": "Software developer",
      "id": 52
    },
    {
      "firstName": "Dewi",
      "lastName": "Susanti",
      "username": "dewiSusanti",
      "email": "dewi.susanti@mail.com",
      "birthDate": "1987-12-15",
      "basicSalary": "91000000",
      "status": "Permanen",
      "group": "IT",
      "description": "IT specialist",
      "id": 53
    },
    {
      "firstName": "Lusi",
      "lastName": "Pratiwi",
      "username": "lusiPratiwi",
      "email": "lusi.pratiwi@mail.com",
      "birthDate": "1994-01-10",
      "basicSalary": "90000000",
      "status": "Kontrak",
      "group": "Operations",
      "description": "Operations assistant",
      "id": 54
    },
    {
      "firstName": "Feri",
      "lastName": "Wahyudi",
      "username": "feriWahyudi",
      "email": "feri.wahyudi@mail.com",
      "birthDate": "1990-02-20",
      "basicSalary": "94000000",
      "status": "Permanen",
      "group": "HR",
      "description": "HR specialist",
      "id": 55
    },
    {
      "firstName": "Yuli",
      "lastName": "Sari",
      "username": "yuliSari",
      "email": "yuli.sari@mail.com",
      "birthDate": "1993-03-30",
      "basicSalary": "91000000",
      "status": "Kontrak",
      "group": "Finance",
      "description": "Finance coordinator",
      "id": 56
    },
    {
      "firstName": "Agung",
      "lastName": "Santoso",
      "username": "agungSantoso",
      "email": "agung.santoso@mail.com",
      "birthDate": "1988-04-10",
      "basicSalary": "90000000",
      "status": "Permanen",
      "group": "Legal",
      "description": "Legal officer",
      "id": 57
    },
    {
      "firstName": "Nina",
      "lastName": "Suryani",
      "username": "ninaSuryani",
      "email": "nina.suryani@mail.com",
      "birthDate": "1991-05-25",
      "basicSalary": "93000000",
      "status": "Kontrak",
      "group": "Marketing",
      "description": "Web developer",
      "id": 58
    },
    {
      "firstName": "Rudi",
      "lastName": "Hartono",
      "username": "rudiHartono",
      "email": "rudi.hartono@mail.com",
      "birthDate": "1994-06-10",
      "basicSalary": "97000000",
      "status": "Permanen",
      "group": "Support",
      "description": "Customer support",
      "id": 59
    },
    {
      "firstName": "Sari",
      "lastName": "Kusuma",
      "username": "sariKusuma",
      "email": "sari.kusuma@mail.com",
      "birthDate": "1992-07-15",
      "basicSalary": "90000000",
      "status": "Kontrak",
      "group": "Marketing",
      "description": "Marketing coordinator",
      "id": 60
    },
    {
      "firstName": "Yanti",
      "lastName": "Halim",
      "username": "yantiHalim",
      "email": "yanti.halim@mail.com",
      "birthDate": "1989-08-25",
      "basicSalary": "91000000",
      "status": "Permanen",
      "group": "Sales",
      "description": "Sales coordinator",
      "id": 61
    },
    {
      "firstName": "Agus",
      "lastName": "Nugroho",
      "username": "agusNugroho",
      "email": "agus.nugroho@mail.com",
      "birthDate": "1991-09-15",
      "basicSalary": "94000000",
      "status": "Kontrak",
      "group": "IT",
      "description": "Admin assistant",
      "id": 62
    },
    {
      "firstName": "Hendra",
      "lastName": "Sukma",
      "username": "hendraSukma",
      "email": "hendra.sukma@mail.com",
      "birthDate": "1988-10-10",
      "basicSalary": "90000000",
      "status": "Permanen",
      "group": "IT",
      "description": "IT specialist",
      "id": 63
    },
    {
      "firstName": "Dewi",
      "lastName": "Kusuma",
      "username": "dewiKusuma",
      "email": "dewi.kusuma@mail.com",
      "birthDate": "1992-11-25",
      "basicSalary": "91000000",
      "status": "Kontrak",
      "group": "Finance",
      "description": "Finance specialist",
      "id": 64
    },
    {
      "firstName": "Lina",
      "lastName": "Hartini",
      "username": "linaHartini",
      "email": "lina.hartini@mail.com",
      "birthDate": "1990-12-10",
      "basicSalary": "93000000",
      "status": "Permanen",
      "group": "Quality Assurance",
      "description": "QA specialist",
      "id": 65
    },
    {
      "firstName": "Susi",
      "lastName": "Saputra",
      "username": "susiSaputra",
      "email": "susi.saputra@mail.com",
      "birthDate": "1987-01-10",
      "basicSalary": "94000000",
      "status": "Kontrak",
      "group": "Marketing",
      "description": "Software engineer",
      "id": 66
    },
    {
      "firstName": "Yusuf",
      "lastName": "Suryani",
      "username": "yusufSuryani",
      "email": "yusuf.suryani@mail.com",
      "birthDate": "1995-02-20",
      "basicSalary": "91000000",
      "status": "Permanen",
      "group": "IT",
      "description": "IT manager",
      "id": 67
    },
    {
      "firstName": "Rina",
      "lastName": "Kusuma",
      "username": "rinaKusuma",
      "email": "rina.kusuma@mail.com",
      "birthDate": "1991-03-15",
      "basicSalary": "90000000",
      "status": "Kontrak",
      "group": "Operations",
      "description": "Operations specialist",
      "id": 68
    },
    {
      "firstName": "Agung",
      "lastName": "Hartono",
      "username": "agungHartono",
      "email": "agung.hartono@mail.com",
      "birthDate": "1988-04-25",
      "basicSalary": "94000000",
      "status": "Permanen",
      "group": "Legal",
      "description": "Legal manager",
      "id": 69
    },
    {
      "firstName": "Sari",
      "lastName": "Pratiwi",
      "username": "sariPratiwi",
      "email": "sari.pratiwi@mail.com",
      "birthDate": "1990-05-05",
      "basicSalary": "93000000",
      "status": "Kontrak",
      "group": "HR",
      "description": "HR executive",
      "id": 70
    },
    {
      "firstName": "Budi",
      "lastName": "Santoso",
      "username": "budiSantoso",
      "email": "budi.santoso@mail.com",
      "birthDate": "1992-06-25",
      "basicSalary": "90000000",
      "status": "Permanen",
      "group": "Finance",
      "description": "Finance executive",
      "id": 71
    },
    {
      "firstName": "Rina",
      "lastName": "Ningsih",
      "username": "rinaNingsih",
      "email": "rina.ningsih@mail.com",
      "birthDate": "1988-07-10",
      "basicSalary": "91000000",
      "status": "Kontrak",
      "group": "Marketing",
      "description": "Software developer",
      "id": 72
    },
    {
      "firstName": "Eka",
      "lastName": "Wahyudi",
      "username": "ekaWahyudi",
      "email": "eka.wahyudi@mail.com",
      "birthDate": "1995-08-15",
      "basicSalary": "94000000",
      "status": "Permanen",
      "group": "Support",
      "description": "Technical support manager",
      "id": 73
    },
    {
      "firstName": "Andi",
      "lastName": "Suryani",
      "username": "andiSuryani",
      "email": "andi.suryani@mail.com",
      "birthDate": "1992-09-20",
      "basicSalary": "92000000",
      "status": "Kontrak",
      "group": "IT",
      "description": "Admin assistant",
      "id": 74
    },
    {
      "firstName": "Feri",
      "lastName": "Hartono",
      "username": "feriHartono",
      "email": "feri.hartono@mail.com",
      "birthDate": "1991-10-25",
      "basicSalary": "90000000",
      "status": "Permanen",
      "group": "IT",
      "description": "IT manager",
      "id": 75
    },
    {
      "firstName": "Lina",
      "lastName": "Nugraha",
      "username": "linaNugraha",
      "email": "lina.nugraha@mail.com",
      "birthDate": "1990-11-10",
      "basicSalary": "92000000",
      "status": "Kontrak",
      "group": "Finance",
      "description": "Finance manager",
      "id": 76
    },
    {
      "firstName": "Susi",
      "lastName": "Suryani",
      "username": "susiSuryani",
      "email": "susi.suryani@mail.com",
      "birthDate": "1989-12-15",
      "basicSalary": "93000000",
      "status": "Permanen",
      "group": "Quality Assurance",
      "description": "QA executive",
      "id": 77
    },
    {
      "firstName": "Budi",
      "lastName": "Widodo",
      "username": "budiWidodo",
      "email": "budi.widodo@mail.com",
      "birthDate": "1992-01-20",
      "basicSalary": "91000000",
      "status": "Kontrak",
      "group": "Marketing",
      "description": "Software engineer",
      "id": 78
    },
    {
      "firstName": "Yusuf",
      "lastName": "Saputra",
      "username": "yusufSaputra",
      "email": "yusuf.saputra@mail.com",
      "birthDate": "1991-02-25",
      "basicSalary": "90000000",
      "status": "Permanen",
      "group": "Support",
      "description": "Customer support specialist",
      "id": 79
    },
    {
      "firstName": "Agus",
      "lastName": "Kurniawan",
      "username": "agusKurniawan",
      "email": "agus.kurniawan@mail.com",
      "birthDate": "1988-03-10",
      "basicSalary": "94000000",
      "status": "Kontrak",
      "group": "Marketing",
      "description": "Web developer",
      "id": 80
    },
    {
      "firstName": "Adi",
      "lastName": "Sutrisno",
      "username": "adiSutrisno",
      "email": "adi.sutrisno@mail.com",
      "birthDate": "1990-01-05",
      "basicSalary": "95000000",
      "status": "Permanen",
      "group": "Management",
      "description": "Management executive",
      "id": 81
    },
    {
      "firstName": "Budi",
      "lastName": "Rahmat",
      "username": "budiRahmat",
      "email": "budi.rahmat@mail.com",
      "birthDate": "1992-02-10",
      "basicSalary": "94000000",
      "status": "Kontrak",
      "group": "HR",
      "description": "HR executive",
      "id": 82
    },
    {
      "firstName": "Sari",
      "lastName": "Hidayat",
      "username": "sariHidayat",
      "email": "sari.hidayat@mail.com",
      "birthDate": "1994-03-15",
      "basicSalary": "92000000",
      "status": "Permanen",
      "group": "Finance",
      "description": "Finance specialist",
      "id": 83
    },
    {
      "firstName": "Rina",
      "lastName": "Putri",
      "username": "rinaPutri",
      "email": "rina.putri@mail.com",
      "birthDate": "1991-04-20",
      "basicSalary": "93000000",
      "status": "Kontrak",
      "group": "Support",
      "description": "Support specialist",
      "id": 84
    },
    {
      "firstName": "Lina",
      "lastName": "Sari",
      "username": "linaSari",
      "email": "lina.sari@mail.com",
      "birthDate": "1989-05-25",
      "basicSalary": "91000000",
      "status": "Permanen",
      "group": "Marketing",
      "description": "Marketing executive",
      "id": 85
    },
    {
      "firstName": "Yusuf",
      "lastName": "Pratama",
      "username": "yusufPratama",
      "email": "yusuf.pratama@mail.com",
      "birthDate": "1990-06-30",
      "basicSalary": "95000000",
      "status": "Kontrak",
      "group": "Sales",
      "description": "Sales executive",
      "id": 86
    },
    {
      "firstName": "Fajar",
      "lastName": "Saputra",
      "username": "fajarSaputra",
      "email": "fajar.saputra@mail.com",
      "birthDate": "1993-07-10",
      "basicSalary": "91000000",
      "status": "Permanen",
      "group": "Legal",
      "description": "Legal officer",
      "id": 87
    },
    {
      "firstName": "Siti",
      "lastName": "Rahma",
      "username": "sitiRahma",
      "email": "siti.rahma@mail.com",
      "birthDate": "1992-08-15",
      "basicSalary": "94000000",
      "status": "Kontrak",
      "group": "IT",
      "description": "IT specialist",
      "id": 88
    },
    {
      "firstName": "Agus",
      "lastName": "Mulyono",
      "username": "agusMulyono",
      "email": "agus.mulyono@mail.com",
      "birthDate": "1990-09-20",
      "basicSalary": "92000000",
      "status": "Permanen",
      "group": "Operations",
      "description": "Operations manager",
      "id": 89
    },
    {
      "firstName": "Nina",
      "lastName": "Sari",
      "username": "ninaSari",
      "email": "nina.sari@mail.com",
      "birthDate": "1991-10-25",
      "basicSalary": "91000000",
      "status": "Kontrak",
      "group": "Quality Assurance",
      "description": "QA executive",
      "id": 90
    },
    {
      "firstName": "Hendra",
      "lastName": "Pratama",
      "username": "hendraPratama",
      "email": "hendra.pratama@mail.com",
      "birthDate": "1990-11-30",
      "basicSalary": "94000000",
      "status": "Permanen",
      "group": "Management",
      "description": "Management specialist",
      "id": 91
    },
    {
      "firstName": "Andi",
      "lastName": "Setiawan",
      "username": "andiSetiawan",
      "email": "andi.setiawan@mail.com",
      "birthDate": "1991-12-15",
      "basicSalary": "93000000",
      "status": "Kontrak",
      "group": "HR",
      "description": "HR specialist",
      "id": 92
    },
    {
      "firstName": "Yanti",
      "lastName": "Suryani",
      "username": "yantiSuryani",
      "email": "yanti.suryani@mail.com",
      "birthDate": "1992-01-20",
      "basicSalary": "91000000",
      "status": "Permanen",
      "group": "Finance",
      "description": "Finance manager",
      "id": 93
    },
    {
      "firstName": "Rudi",
      "lastName": "Wahyudi",
      "username": "rudiWahyudi",
      "email": "rudi.wahyudi@mail.com",
      "birthDate": "1989-02-25",
      "basicSalary": "92000000",
      "status": "Kontrak",
      "group": "Support",
      "description": "Support manager",
      "id": 94
    },
    {
      "firstName": "Dewi",
      "lastName": "Anggraini",
      "username": "dewiAnggraini",
      "email": "dewi.anggraini@mail.com",
      "birthDate": "1991-03-10",
      "basicSalary": "95000000",
      "status": "Permanen",
      "group": "Marketing",
      "description": "Marketing specialist",
      "id": 95
    },
    {
      "firstName": "Budi",
      "lastName": "Sutrisno",
      "username": "budiSutrisno",
      "email": "budi.sutrisno@mail.com",
      "birthDate": "1992-04-25",
      "basicSalary": "94000000",
      "status": "Kontrak",
      "group": "Sales",
      "description": "Sales specialist",
      "id": 96
    },
    {
      "firstName": "Agus",
      "lastName": "Hartono",
      "username": "agusHartono",
      "email": "agus.hartono@mail.com",
      "birthDate": "1993-05-30",
      "basicSalary": "91000000",
      "status": "Permanen",
      "group": "Legal",
      "description": "Legal executive",
      "id": 97
    },
    {
      "firstName": "Yuli",
      "lastName": "Wahyudi",
      "username": "yuliWahyudi",
      "email": "yuli.wahyudi@mail.com",
      "birthDate": "1989-06-15",
      "basicSalary": "93000000",
      "status": "Kontrak",
      "group": "IT",
      "description": "IT manager",
      "id": 98
    },
    {
      "firstName": "Rina",
      "lastName": "Sutrisno",
      "username": "rinaSutrisno",
      "email": "rina.sutrisno@mail.com",
      "birthDate": "1992-07-20",
      "basicSalary": "92000000",
      "status": "Permanen",
      "group": "Operations",
      "description": "Operations executive",
      "id": 99
    },
    {
      "firstName": "Feri",
      "lastName": "Pratama",
      "username": "feriPratama",
      "email": "feri.pratama@mail.com",
      "birthDate": "1991-08-25",
      "basicSalary": "94000000",
      "status": "Kontrak",
      "group": "Quality Assurance",
      "description": "QA manager",
      "id": 100
    }
  ]
}